<define-tag pagetitle>DLA-2905-1 apache-log4j1.2</define-tag>
<define-tag report_date>2022-1-31</define-tag>
<define-tag secrefs>CVE-2021-4104 CVE-2022-23302 CVE-2022-23305 CVE-2022-23307 Bug#1004482</define-tag>
<define-tag packages>apache-log4j1.2</define-tag>
<define-tag isvulnerable>yes</define-tag>
<define-tag fixed>yes</define-tag>
<define-tag fixed-section>no</define-tag>

#use wml::debian::security

