<define-tag pagetitle>DSA-4919-1 lz4</define-tag>
<define-tag report_date>2021-5-21</define-tag>
<define-tag secrefs>CVE-2021-3520 Bug#987856</define-tag>
<define-tag packages>lz4</define-tag>
<define-tag isvulnerable>yes</define-tag>
<define-tag fixed>yes</define-tag>
<define-tag fixed-section>no</define-tag>

#use wml::debian::security



</dl>
