<define-tag pagetitle>DSA-4628-1 php7.0</define-tag>
<define-tag report_date>2020-2-18</define-tag>
<define-tag secrefs>CVE-2019-11045 CVE-2019-11046 CVE-2019-11047 CVE-2019-11050 CVE-2020-7059 CVE-2020-7060</define-tag>
<define-tag packages>php7.0</define-tag>
<define-tag isvulnerable>yes</define-tag>
<define-tag fixed>yes</define-tag>
<define-tag fixed-section>no</define-tag>

#use wml::debian::security



</dl>
