<define-tag pagetitle>DLA-2687-2 prosody</define-tag>
<define-tag report_date>2021-06-19</define-tag>
<define-tag secrefs>CVE-2021-32921</define-tag>
<define-tag packages>prosody</define-tag>
<define-tag isvulnerable>yes</define-tag>
<define-tag fixed>yes</define-tag>
<define-tag fixed-section>no</define-tag>

#use wml::debian::security

