<define-tag pagetitle>DLA-2527-1 snapd</define-tag>
<define-tag report_date>2021-01-18</define-tag>
<define-tag secrefs>CVE-2019-11840</define-tag>
<define-tag packages>snapd</define-tag>
<define-tag isvulnerable>yes</define-tag>
<define-tag fixed>yes</define-tag>
<define-tag fixed-section>no</define-tag>

#use wml::debian::security

