<define-tag pagetitle>DLA-2582-1 mqtt-client</define-tag>
<define-tag report_date>2021-03-08</define-tag>
<define-tag secrefs>CVE-2019-0222 Bug#925964</define-tag>
<define-tag packages>mqtt-client</define-tag>
<define-tag isvulnerable>yes</define-tag>
<define-tag fixed>yes</define-tag>
<define-tag fixed-section>no</define-tag>

#use wml::debian::security

