<define-tag pagetitle>DLA-2837-1 gmp</define-tag>
<define-tag report_date>2021-12-02</define-tag>
<define-tag secrefs>CVE-2021-43618 Bug#994405</define-tag>
<define-tag packages>gmp</define-tag>
<define-tag isvulnerable>yes</define-tag>
<define-tag fixed>yes</define-tag>
<define-tag fixed-section>no</define-tag>

#use wml::debian::security

