<define-tag pagetitle>DLA-2585-1 libupnp</define-tag>
<define-tag report_date>2021-03-08</define-tag>
<define-tag secrefs>CVE-2020-13848 Bug#962282</define-tag>
<define-tag packages>libupnp</define-tag>
<define-tag isvulnerable>yes</define-tag>
<define-tag fixed>yes</define-tag>
<define-tag fixed-section>no</define-tag>

#use wml::debian::security

