<define-tag pagetitle>DLA-2659-1 graphviz</define-tag>
<define-tag report_date>2021-05-13</define-tag>
<define-tag secrefs>CVE-2018-10196 CVE-2020-18032 Bug#898841 Bug#988000</define-tag>
<define-tag packages>graphviz</define-tag>
<define-tag isvulnerable>yes</define-tag>
<define-tag fixed>yes</define-tag>
<define-tag fixed-section>no</define-tag>

#use wml::debian::security

