<define-tag pagetitle>DLA-2525-1 wavpack</define-tag>
<define-tag report_date>2021-01-15</define-tag>
<define-tag secrefs>CVE-2018-19840 CVE-2018-19841 CVE-2019-11498 CVE-2019-1010315 CVE-2019-1010317 CVE-2019-1010319 CVE-2020-35738 Bug#915564 Bug#915565 Bug#932060 Bug#932061 Bug#927903 Bug#978548</define-tag>
<define-tag packages>wavpack</define-tag>
<define-tag isvulnerable>yes</define-tag>
<define-tag fixed>yes</define-tag>
<define-tag fixed-section>no</define-tag>

#use wml::debian::security

