<define-tag pagetitle>DLA-2695-1 klibc</define-tag>
<define-tag report_date>2021-06-28</define-tag>
<define-tag secrefs>CVE-2021-31870 CVE-2021-31871 CVE-2021-31872 CVE-2021-31873 Bug#989505</define-tag>
<define-tag packages>klibc</define-tag>
<define-tag isvulnerable>yes</define-tag>
<define-tag fixed>yes</define-tag>
<define-tag fixed-section>no</define-tag>

#use wml::debian::security

