<define-tag pagetitle>DLA-2746-1 scrollz</define-tag>
<define-tag report_date>2021-8-21</define-tag>
<define-tag secrefs>CVE-2021-29376</define-tag>
<define-tag packages>scrollz</define-tag>
<define-tag isvulnerable>yes</define-tag>
<define-tag fixed>yes</define-tag>
<define-tag fixed-section>no</define-tag>

#use wml::debian::security

