<define-tag pagetitle>DLA-0003-1 openssl</define-tag>
<define-tag report_date>2014-6-5</define-tag>
<define-tag secrefs>CVE-2014-0076 CVE-2014-0195 CVE-2014-0221 CVE-2014-3470 CVE-2014-0224</define-tag>
<define-tag packages>openssl</define-tag>
<define-tag isvulnerable>yes</define-tag>
<define-tag fixed>yes</define-tag>
<define-tag fixed-section>no</define-tag>

#use wml::debian::security

