<define-tag pagetitle>DLA-924-1 tomcat7</define-tag>
<define-tag report_date>2017-4-28</define-tag>
<define-tag secrefs>CVE-2017-5647 CVE-2017-5648 Bug#860068</define-tag>
<define-tag packages>tomcat7</define-tag>
<define-tag isvulnerable>yes</define-tag>
<define-tag fixed>yes</define-tag>
<define-tag fixed-section>no</define-tag>

#use wml::debian::security

