<define-tag pagetitle>DLA-801-1 libxpm</define-tag>
<define-tag report_date>2017-1-26</define-tag>
<define-tag secrefs>CVE-2016-10164</define-tag>
<define-tag packages>libxpm</define-tag>
<define-tag isvulnerable>yes</define-tag>
<define-tag fixed>yes</define-tag>
<define-tag fixed-section>no</define-tag>

#use wml::debian::security

