<define-tag pagetitle>DLA-1142-1 libav</define-tag>
<define-tag report_date>2017-10-21</define-tag>
<define-tag secrefs>CVE-2015-8365 CVE-2017-7208 CVE-2017-7862 CVE-2017-9992</define-tag>
<define-tag packages>libav</define-tag>
<define-tag isvulnerable>yes</define-tag>
<define-tag fixed>yes</define-tag>
<define-tag fixed-section>no</define-tag>

#use wml::debian::security

