<define-tag pagetitle>DLA-851-1 wget</define-tag>
<define-tag report_date>2017-3-9</define-tag>
<define-tag secrefs>CVE-2017-6508 Bug##857073</define-tag>
<define-tag packages>wget</define-tag>
<define-tag isvulnerable>yes</define-tag>
<define-tag fixed>yes</define-tag>
<define-tag fixed-section>no</define-tag>

#use wml::debian::security

