<define-tag pagetitle>DLA-791-1 libav</define-tag>
<define-tag report_date>2017-1-19</define-tag>
<define-tag secrefs>CVE-2016-9819 CVE-2016-9820 CVE-2016-9821 CVE-2016-9822</define-tag>
<define-tag packages>libav</define-tag>
<define-tag isvulnerable>yes</define-tag>
<define-tag fixed>yes</define-tag>
<define-tag fixed-section>no</define-tag>

#use wml::debian::security

