<define-tag pagetitle>DLA-2239-1 libpam-tacplus</define-tag>
<define-tag report_date>2020-06-08</define-tag>
<define-tag secrefs>CVE-2020-13881</define-tag>
<define-tag packages>libpam-tacplus</define-tag>
<define-tag isvulnerable>yes</define-tag>
<define-tag fixed>yes</define-tag>
<define-tag fixed-section>no</define-tag>

#use wml::debian::security
