<define-tag pagetitle>DLA-2488-2 python-apt</define-tag>
<define-tag report_date>2020-12-26</define-tag>
<define-tag secrefs>Bug#977000</define-tag>
<define-tag packages>python-apt</define-tag>
<define-tag isvulnerable>yes</define-tag>
<define-tag fixed>yes</define-tag>
<define-tag fixed-section>no</define-tag>

#use wml::debian::security

