<define-tag pagetitle>DLA-2249-1 libexif</define-tag>
<define-tag report_date>2020-06-13</define-tag>
<define-tag secrefs>CVE-2020-0182 CVE-2020-0198 Bug#962345</define-tag>
<define-tag packages>libexif</define-tag>
<define-tag isvulnerable>yes</define-tag>
<define-tag fixed>yes</define-tag>
<define-tag fixed-section>no</define-tag>

#use wml::debian::security

