<define-tag pagetitle>DLA-1590-1 openjdk-7</define-tag>
<define-tag report_date>2018-11-22</define-tag>
<define-tag secrefs>CVE-2018-2952 CVE-2018-3136 CVE-2018-3139 CVE-2018-3149 CVE-2018-3169 CVE-2018-3180 CVE-2018-3214</define-tag>
<define-tag packages>openjdk-7</define-tag>
<define-tag isvulnerable>yes</define-tag>
<define-tag fixed>yes</define-tag>
<define-tag fixed-section>no</define-tag>

#use wml::debian::security

