<define-tag pagetitle>DLA-1464-1 postgresql-9.4</define-tag>
<define-tag report_date>2018-8-15</define-tag>
<define-tag secrefs>CVE-2018-10915</define-tag>
<define-tag packages>postgresql-9.4</define-tag>
<define-tag isvulnerable>yes</define-tag>
<define-tag fixed>yes</define-tag>
<define-tag fixed-section>no</define-tag>

#use wml::debian::security

