<define-tag pagetitle>DLA-1331-1 mercurial</define-tag>
<define-tag report_date>2018-3-30</define-tag>
<define-tag secrefs>CVE-2018-1000132 Bug#892964</define-tag>
<define-tag packages>mercurial</define-tag>
<define-tag isvulnerable>yes</define-tag>
<define-tag fixed>yes</define-tag>
<define-tag fixed-section>no</define-tag>

#use wml::debian::security

