<define-tag pagetitle>DLA-1437-1 slurm-llnl</define-tag>
<define-tag report_date>2018-7-21</define-tag>
<define-tag secrefs>CVE-2018-7033 CVE-2018-10995</define-tag>
<define-tag packages>slurm-llnl</define-tag>
<define-tag isvulnerable>yes</define-tag>
<define-tag fixed>yes</define-tag>
<define-tag fixed-section>no</define-tag>

#use wml::debian::security

