<define-tag pagetitle>DSA-4524-1 dino-im</define-tag>
<define-tag report_date>2019-9-16</define-tag>
<define-tag secrefs>CVE-2019-16235 CVE-2019-16236 CVE-2019-16237</define-tag>
<define-tag packages>dino-im</define-tag>
<define-tag isvulnerable>yes</define-tag>
<define-tag fixed>yes</define-tag>
<define-tag fixed-section>no</define-tag>

#use wml::debian::security



</dl>
