<define-tag pagetitle>DSA-4468-1 php-horde-form</define-tag>
<define-tag report_date>2019-6-21</define-tag>
<define-tag secrefs>CVE-2019-9858 Bug#930321</define-tag>
<define-tag packages>php-horde-form</define-tag>
<define-tag isvulnerable>yes</define-tag>
<define-tag fixed>yes</define-tag>
<define-tag fixed-section>no</define-tag>

#use wml::debian::security



</dl>
