<define-tag pagetitle>DSA-4533-1 lemonldap-ng</define-tag>
<define-tag report_date>2019-9-25</define-tag>
<define-tag secrefs>CVE-2019-15941</define-tag>
<define-tag packages>lemonldap-ng</define-tag>
<define-tag isvulnerable>yes</define-tag>
<define-tag fixed>yes</define-tag>
<define-tag fixed-section>no</define-tag>

#use wml::debian::security



</dl>
