<define-tag pagetitle>DLA-1725-1 rsync</define-tag>
<define-tag report_date>2019-3-24</define-tag>
<define-tag secrefs>CVE-2016-9840 CVE-2016-9841 CVE-2016-9842 CVE-2016-9843 CVE-2018-5764</define-tag>
<define-tag packages>rsync</define-tag>
<define-tag isvulnerable>yes</define-tag>
<define-tag fixed>yes</define-tag>
<define-tag fixed-section>no</define-tag>

#use wml::debian::security

