<define-tag pagetitle>DLA-1828-1 python-urllib3</define-tag>
<define-tag report_date>2019-06-20</define-tag>
<define-tag secrefs>CVE-2019-11236 Bug#927172</define-tag>
<define-tag packages>python-urllib3</define-tag>
<define-tag isvulnerable>yes</define-tag>
<define-tag fixed>yes</define-tag>
<define-tag fixed-section>no</define-tag>

#use wml::debian::security

