<define-tag pagetitle>DLA-618-1 qemu</define-tag>
<define-tag report_date>2016-9-11</define-tag>
<define-tag secrefs>CVE-2016-7116 Bug#836502</define-tag>
<define-tag packages>qemu</define-tag>
<define-tag isvulnerable>yes</define-tag>
<define-tag fixed>yes</define-tag>
<define-tag fixed-section>no</define-tag>

#use wml::debian::security

