<define-tag pagetitle>DLA-718-1 vim</define-tag>
<define-tag report_date>2016-11-22</define-tag>
<define-tag secrefs>CVE-2016-1248</define-tag>
<define-tag packages>vim</define-tag>
<define-tag isvulnerable>yes</define-tag>
<define-tag fixed>yes</define-tag>
<define-tag fixed-section>no</define-tag>

#use wml::debian::security

